<?xml version="1.0" encoding="utf-8"?>
<!-- Generator: Adobe Illustrator 15.0.2, SVG Export Plug-In . SVG Version: 6.00 Build 0)  -->
<!DOCTYPE svg PUBLIC "-//W3C//DTD SVG 1.1//EN" "http://www.w3.org/Graphics/SVG/1.1/DTD/svg11.dtd">
<svg version="1.1" id="Layer_1" xmlns="http://www.w3.org/2000/svg" xmlns:xlink="http://www.w3.org/1999/xlink" x="0px" y="0px"
	 width="280.91px" height="32.768px" viewBox="0 0 280.91 32.768" enable-background="new 0 0 280.91 32.768" xml:space="preserve">
<g>
	<g>
		<g>
			<g>
				<path fill="#FFFFFF" d="M1.02,24.597c0.104-0.151,0.222-0.376,0.354-0.673c0.132-0.297,0.235-0.672,0.311-1.125
					c0.104-0.661,0.22-1.404,0.348-2.23c0.127-0.826,0.26-1.692,0.396-2.599s0.273-1.833,0.41-2.782s0.27-1.883,0.396-2.805
					c0.128-0.92,0.25-1.807,0.368-2.662c0.118-0.854,0.225-1.635,0.319-2.343C4.017,6.67,4.095,6.055,4.156,5.529
					C4.218,5.006,4.263,4.611,4.29,4.348h1.799L14.995,21l8.836-16.652h1.346l2.322,16.822c0.066,0.529,0.137,0.982,0.213,1.359
					c0.075,0.377,0.15,0.701,0.227,0.971c0.075,0.268,0.148,0.49,0.219,0.664c0.071,0.176,0.14,0.319,0.205,0.433v0.057h-3.568
					v-0.057c0.048-0.104,0.093-0.274,0.135-0.51c0.043-0.235,0.064-0.519,0.064-0.85c0-0.122-0.005-0.247-0.015-0.376
					c-0.01-0.127-0.023-0.266-0.042-0.417L23.138,8.879l-8.354,15.718l-0.978-0.113L5.396,8.737
					c-0.331,2.237-0.619,4.305-0.864,6.202c-0.104,0.813-0.208,1.621-0.312,2.428c-0.104,0.809-0.196,1.561-0.276,2.26
					c-0.08,0.698-0.144,1.314-0.19,1.848c-0.048,0.533-0.071,0.928-0.071,1.182c0,0.321,0.01,0.604,0.028,0.85
					c0.019,0.246,0.038,0.453,0.057,0.623c0.028,0.199,0.057,0.373,0.085,0.524H1.02V24.597z"/>
				<path fill="#FFFFFF" d="M45.597,24.653v-0.057c0.019-0.048,0.032-0.118,0.042-0.212c0.01-0.095,0.015-0.18,0.015-0.256
					c0-0.292-0.041-0.615-0.121-0.969c-0.08-0.355-0.233-0.796-0.46-1.324l-1.714-3.852c-0.528-0.02-1.231-0.029-2.109-0.029
					s-1.826,0-2.846,0c-0.746,0-1.466,0-2.16,0c-0.693,0-1.319,0.01-1.876,0.029l-1.628,3.738c-0.143,0.349-0.293,0.73-0.453,1.146
					c-0.161,0.416-0.241,0.836-0.241,1.26c0,0.123,0.01,0.225,0.028,0.305s0.038,0.135,0.057,0.163v0.057h-2.889v-0.057
					c0.17-0.179,0.383-0.498,0.637-0.956c0.256-0.457,0.534-1.031,0.836-1.721l8.113-17.997h1.133l7.689,17.304
					c0.18,0.406,0.366,0.801,0.56,1.182c0.193,0.383,0.375,0.725,0.545,1.027s0.321,0.557,0.453,0.765s0.222,0.34,0.269,0.396v0.057
					H45.597z M36.421,16.738c0.547,0,1.108-0.003,1.685-0.008c0.576-0.004,1.14-0.01,1.692-0.014
					c0.552-0.005,1.083-0.01,1.593-0.014c0.51-0.006,0.973-0.013,1.388-0.021L38.8,7.689l-3.908,9.049H36.421z"/>
				<path fill="#FFFFFF" d="M58.793,15.775l-5.013,6.357c-0.188,0.227-0.373,0.461-0.553,0.701c-0.179,0.24-0.34,0.475-0.48,0.701
					c-0.143,0.227-0.258,0.436-0.348,0.629c-0.09,0.194-0.135,0.357-0.135,0.489h-2.746v-0.057c0.207-0.179,0.502-0.453,0.885-0.821
					c0.382-0.368,0.79-0.83,1.225-1.388l6.23-7.831l-6.4-8.41c-0.35-0.453-0.693-0.834-1.033-1.141s-0.596-0.508-0.766-0.602V4.348
					h4.433c0,0.113,0.017,0.26,0.05,0.439c0.033,0.179,0.097,0.389,0.191,0.629c0.094,0.242,0.224,0.508,0.389,0.801
					s0.38,0.609,0.645,0.949l4.092,5.366l4.518-5.649c0.17-0.208,0.338-0.435,0.503-0.68c0.165-0.246,0.312-0.484,0.438-0.715
					c0.128-0.232,0.231-0.447,0.312-0.645c0.08-0.199,0.12-0.363,0.12-0.496h2.748v0.057c-0.095,0.076-0.199,0.165-0.313,0.27
					c-0.113,0.104-0.242,0.23-0.389,0.382s-0.31,0.331-0.488,0.538c-0.18,0.207-0.383,0.453-0.609,0.736l-5.904,7.448l6.598,8.638
					c0.453,0.586,0.876,1.068,1.268,1.451s0.678,0.625,0.857,0.729v0.057h-4.404c0-0.218-0.09-0.575-0.27-1.076
					c-0.179-0.501-0.514-1.081-1.005-1.741L58.793,15.775z"/>
				<path fill="#FFFFFF" d="M79.935,7.576h-0.313c-0.075-0.217-0.195-0.463-0.36-0.736s-0.383-0.531-0.651-0.771
					c-0.27-0.24-0.595-0.441-0.978-0.602C77.251,5.306,76.8,5.226,76.28,5.226c-0.462,0-0.873,0.071-1.231,0.212
					c-0.358,0.143-0.658,0.34-0.899,0.596c-0.24,0.254-0.422,0.557-0.545,0.906c-0.123,0.349-0.184,0.736-0.184,1.16
					c0,0.68,0.19,1.329,0.573,1.947c0.382,0.619,0.861,1.23,1.437,1.834c0.576,0.604,1.199,1.209,1.869,1.813
					c0.671,0.604,1.294,1.232,1.869,1.883c0.576,0.652,1.056,1.334,1.438,2.047c0.383,0.713,0.574,1.479,0.574,2.301
					c0,0.613-0.106,1.229-0.319,1.848c-0.212,0.619-0.54,1.174-0.983,1.664c-0.444,0.49-1.016,0.89-1.714,1.197
					c-0.698,0.307-1.529,0.459-2.492,0.459c-0.538,0-1.05-0.049-1.536-0.148s-0.935-0.222-1.346-0.367
					c-0.41-0.146-0.778-0.305-1.104-0.475c-0.325-0.17-0.592-0.326-0.8-0.468l0.326-3.13h0.354c0.104,0.444,0.273,0.867,0.51,1.268
					c0.236,0.401,0.526,0.756,0.871,1.063s0.738,0.553,1.182,0.736c0.444,0.184,0.931,0.275,1.459,0.275
					c0.481,0,0.913-0.072,1.296-0.219c0.382-0.146,0.71-0.35,0.983-0.609c0.274-0.26,0.484-0.568,0.631-0.928
					c0.146-0.358,0.219-0.75,0.219-1.175c0-0.595-0.108-1.145-0.325-1.649c-0.217-0.506-0.503-0.984-0.856-1.438
					c-0.354-0.453-0.756-0.893-1.204-1.316c-0.448-0.426-0.908-0.853-1.38-1.281c-0.473-0.43-0.933-0.871-1.381-1.324
					s-0.85-0.938-1.204-1.451c-0.354-0.516-0.64-1.067-0.856-1.658c-0.217-0.59-0.326-1.238-0.326-1.946
					c0-0.745,0.145-1.419,0.433-2.019c0.288-0.599,0.67-1.111,1.146-1.535c0.477-0.426,1.018-0.751,1.622-0.978
					c0.604-0.227,1.227-0.34,1.869-0.34c0.472,0,0.906,0.038,1.303,0.113s0.752,0.165,1.068,0.269
					c0.316,0.104,0.593,0.208,0.828,0.313c0.236,0.104,0.43,0.188,0.581,0.254L79.935,7.576z"/>
				<path fill="#FFFFFF" d="M90.002,5.594c-1.114,0-2.119,0.049-3.017,0.148c-0.896,0.1-1.67,0.205-2.322,0.318
					c-0.755,0.143-1.43,0.298-2.024,0.468l0.411-2.294c0.113,0.01,0.283,0.02,0.51,0.028s0.479,0.019,0.757,0.028
					s0.571,0.017,0.878,0.021c0.307,0.004,0.598,0.01,0.871,0.014c0.273,0.005,0.517,0.01,0.729,0.014
					c0.212,0.006,0.365,0.008,0.46,0.008h8.086c0.094,0,0.247-0.002,0.46-0.008c0.212-0.004,0.455-0.009,0.729-0.014
					c0.273-0.004,0.563-0.01,0.87-0.014c0.307-0.005,0.6-0.012,0.878-0.021s0.531-0.02,0.758-0.028s0.396-0.019,0.51-0.028
					l0.41,2.294c-0.604-0.17-1.283-0.325-2.039-0.468c-0.65-0.113-1.425-0.219-2.322-0.318c-0.896-0.1-1.901-0.148-3.016-0.148
					v13.523c0,0.802,0.012,1.503,0.035,2.102c0.023,0.6,0.052,1.117,0.085,1.551c0.033,0.435,0.076,0.799,0.128,1.091
					s0.105,0.538,0.162,0.736v0.057h-3.384v-0.057c0.057-0.198,0.108-0.444,0.155-0.736c0.048-0.292,0.09-0.656,0.128-1.091
					c0.038-0.434,0.066-0.951,0.085-1.551c0.019-0.599,0.028-1.3,0.028-2.102V5.594z"/>
				<path fill="#FFFFFF" d="M104.969,19.117c0,0.802,0.012,1.503,0.035,2.102c0.023,0.6,0.052,1.117,0.085,1.551
					c0.033,0.435,0.076,0.799,0.128,1.091s0.106,0.538,0.163,0.736v0.057h-3.398v-0.057c0.057-0.198,0.11-0.444,0.162-0.736
					s0.095-0.656,0.128-1.091c0.033-0.434,0.062-0.948,0.085-1.543s0.035-1.298,0.035-2.109V9.898c0-0.803-0.012-1.504-0.035-2.104
					c-0.023-0.599-0.052-1.115-0.085-1.55s-0.076-0.8-0.128-1.097c-0.052-0.299-0.105-0.546-0.162-0.744V4.348l0.594,0.057
					c0.18,0.02,0.381,0.031,0.603,0.035c0.222,0.005,0.45,0.008,0.687,0.008c0.368,0,0.866-0.045,1.494-0.135s1.428-0.135,2.4-0.135
					c0.906,0,1.743,0.123,2.513,0.368s1.438,0.604,2.004,1.076s1.008,1.05,1.324,1.735c0.316,0.684,0.474,1.46,0.474,2.328
					c0,0.68-0.087,1.311-0.262,1.891s-0.42,1.107-0.736,1.579s-0.696,0.89-1.14,1.253s-0.939,0.668-1.487,0.914l4.971,6.98
					c0.245,0.35,0.475,0.651,0.687,0.906c0.213,0.255,0.416,0.475,0.609,0.658s0.38,0.336,0.56,0.453
					c0.179,0.118,0.363,0.211,0.552,0.276v0.057h-4.093c-0.027-0.179-0.12-0.417-0.275-0.716c-0.156-0.297-0.338-0.592-0.545-0.885
					l-5.014-7.065c-0.217,0.019-0.434,0.036-0.65,0.05c-0.218,0.014-0.439,0.021-0.666,0.021c-0.265,0-0.531-0.01-0.8-0.029
					c-0.27-0.019-0.541-0.051-0.814-0.099V19.117z M104.969,14.826c0.255,0.057,0.515,0.097,0.778,0.121
					c0.265,0.023,0.52,0.035,0.766,0.035c0.707,0,1.354-0.107,1.939-0.318c0.585-0.213,1.083-0.537,1.494-0.971
					c0.41-0.434,0.729-0.975,0.955-1.621s0.34-1.404,0.34-2.273c0-0.707-0.08-1.35-0.24-1.926c-0.16-0.575-0.398-1.064-0.715-1.465
					c-0.316-0.401-0.715-0.713-1.197-0.936c-0.48-0.221-1.043-0.332-1.685-0.332c-0.651,0-1.171,0.033-1.558,0.1
					c-0.387,0.065-0.68,0.137-0.878,0.212V14.826z"/>
				<path fill="#FFFFFF" d="M133.161,24.653v-0.057c0.02-0.048,0.033-0.118,0.043-0.212c0.01-0.095,0.014-0.18,0.014-0.256
					c0-0.292-0.04-0.615-0.12-0.969c-0.08-0.355-0.233-0.796-0.46-1.324l-1.713-3.852c-0.529-0.02-1.232-0.029-2.11-0.029
					s-1.827,0-2.847,0c-0.745,0-1.465,0-2.159,0c-0.693,0-1.319,0.01-1.876,0.029l-1.629,3.738c-0.141,0.349-0.292,0.73-0.453,1.146
					c-0.16,0.416-0.24,0.836-0.24,1.26c0,0.123,0.01,0.225,0.028,0.305s0.038,0.135,0.057,0.163v0.057h-2.889v-0.057
					c0.17-0.179,0.382-0.498,0.638-0.956c0.254-0.457,0.533-1.031,0.835-1.721l8.114-17.997h1.133l7.688,17.304
					c0.18,0.406,0.366,0.801,0.56,1.182c0.193,0.383,0.375,0.725,0.545,1.027s0.321,0.557,0.453,0.765s0.222,0.34,0.27,0.396v0.057
					H133.161z M123.985,16.738c0.548,0,1.109-0.003,1.686-0.008c0.576-0.004,1.14-0.01,1.692-0.014
					c0.552-0.005,1.083-0.01,1.593-0.014c0.51-0.006,0.973-0.013,1.388-0.021l-3.979-8.992l-3.908,9.049H123.985z"/>
				<path fill="#FFFFFF" d="M147.251,7.576h-0.311c-0.076-0.217-0.196-0.463-0.361-0.736s-0.383-0.531-0.651-0.771
					c-0.27-0.24-0.595-0.441-0.978-0.602c-0.382-0.161-0.833-0.241-1.352-0.241c-0.463,0-0.874,0.071-1.232,0.212
					c-0.358,0.143-0.658,0.34-0.899,0.596c-0.24,0.254-0.422,0.557-0.545,0.906c-0.123,0.349-0.185,0.736-0.185,1.16
					c0,0.68,0.191,1.329,0.574,1.947c0.382,0.619,0.861,1.23,1.438,1.834c0.575,0.604,1.198,1.209,1.869,1.813
					c0.67,0.604,1.293,1.232,1.869,1.883c0.575,0.652,1.055,1.334,1.437,2.047c0.383,0.713,0.573,1.479,0.573,2.301
					c0,0.613-0.105,1.229-0.318,1.848c-0.212,0.619-0.54,1.174-0.984,1.664c-0.443,0.49-1.015,0.89-1.713,1.197
					c-0.698,0.307-1.529,0.459-2.492,0.459c-0.538,0-1.05-0.049-1.536-0.148s-0.935-0.222-1.346-0.367
					c-0.41-0.146-0.778-0.305-1.104-0.475c-0.325-0.17-0.592-0.326-0.8-0.468l0.325-3.13h0.354c0.104,0.444,0.273,0.867,0.51,1.268
					c0.236,0.401,0.526,0.756,0.871,1.063s0.738,0.553,1.183,0.736c0.443,0.184,0.93,0.275,1.458,0.275
					c0.481,0,0.913-0.072,1.296-0.219c0.382-0.146,0.71-0.35,0.984-0.609c0.273-0.26,0.483-0.568,0.63-0.928
					c0.146-0.358,0.22-0.75,0.22-1.175c0-0.595-0.109-1.145-0.326-1.649c-0.217-0.506-0.503-0.984-0.856-1.438
					c-0.354-0.453-0.756-0.893-1.204-1.316c-0.448-0.426-0.908-0.853-1.381-1.281c-0.472-0.43-0.932-0.871-1.38-1.324
					s-0.85-0.938-1.204-1.451c-0.354-0.516-0.64-1.067-0.856-1.658c-0.217-0.59-0.325-1.238-0.325-1.946
					c0-0.745,0.144-1.419,0.432-2.019c0.288-0.599,0.67-1.111,1.146-1.535c0.477-0.426,1.018-0.751,1.621-0.978
					c0.604-0.227,1.228-0.34,1.869-0.34c0.473,0,0.906,0.038,1.303,0.113s0.753,0.165,1.069,0.269
					c0.316,0.104,0.593,0.208,0.829,0.313c0.235,0.104,0.429,0.188,0.58,0.254L147.251,7.576z"/>
				<path fill="#FFFFFF" d="M160.165,7.576h-0.311c-0.076-0.217-0.196-0.463-0.361-0.736s-0.383-0.531-0.651-0.771
					c-0.27-0.24-0.595-0.441-0.978-0.602c-0.382-0.161-0.833-0.241-1.352-0.241c-0.463,0-0.874,0.071-1.232,0.212
					c-0.358,0.143-0.658,0.34-0.899,0.596c-0.24,0.254-0.422,0.557-0.545,0.906c-0.123,0.349-0.185,0.736-0.185,1.16
					c0,0.68,0.191,1.329,0.574,1.947c0.382,0.619,0.861,1.23,1.438,1.834c0.575,0.604,1.198,1.209,1.869,1.813
					c0.67,0.604,1.293,1.232,1.869,1.883c0.575,0.652,1.055,1.334,1.437,2.047c0.383,0.713,0.573,1.479,0.573,2.301
					c0,0.613-0.105,1.229-0.318,1.848c-0.212,0.619-0.54,1.174-0.984,1.664c-0.443,0.49-1.015,0.89-1.713,1.197
					c-0.698,0.307-1.529,0.459-2.492,0.459c-0.538,0-1.05-0.049-1.536-0.148s-0.935-0.222-1.346-0.367
					c-0.41-0.146-0.778-0.305-1.104-0.475c-0.325-0.17-0.592-0.326-0.8-0.468l0.325-3.13h0.354c0.104,0.444,0.273,0.867,0.51,1.268
					c0.236,0.401,0.526,0.756,0.871,1.063s0.738,0.553,1.183,0.736c0.443,0.184,0.93,0.275,1.458,0.275
					c0.481,0,0.913-0.072,1.296-0.219c0.382-0.146,0.71-0.35,0.984-0.609c0.273-0.26,0.483-0.568,0.63-0.928
					c0.146-0.358,0.22-0.75,0.22-1.175c0-0.595-0.109-1.145-0.326-1.649c-0.217-0.506-0.503-0.984-0.856-1.438
					c-0.354-0.453-0.756-0.893-1.204-1.316c-0.448-0.426-0.908-0.853-1.381-1.281c-0.472-0.43-0.932-0.871-1.38-1.324
					s-0.85-0.938-1.204-1.451c-0.354-0.516-0.64-1.067-0.856-1.658c-0.217-0.59-0.325-1.238-0.325-1.946
					c0-0.745,0.144-1.419,0.432-2.019c0.288-0.599,0.67-1.111,1.146-1.535c0.477-0.426,1.018-0.751,1.621-0.978
					c0.604-0.227,1.228-0.34,1.869-0.34c0.473,0,0.906,0.038,1.303,0.113s0.753,0.165,1.069,0.269
					c0.316,0.104,0.593,0.208,0.829,0.313c0.235,0.104,0.429,0.188,0.58,0.254L160.165,7.576z"/>
				<path fill="#FFFFFF" d="M168.414,4.334c1.166-0.01,2.234-0.021,3.207-0.035c0.973-0.016,1.803-0.036,2.492-0.064
					s1.156-0.066,1.401-0.113l-0.693,1.883c-0.312-0.084-0.675-0.16-1.09-0.227c-0.359-0.057-0.796-0.11-1.311-0.162
					c-0.515-0.053-1.106-0.078-1.777-0.078c-0.227,0-0.497,0.008-0.813,0.021s-0.621,0.03-0.913,0.049
					c-0.34,0.02-0.685,0.038-1.034,0.057v7.732c0.973-0.01,1.851-0.038,2.634-0.086c0.783-0.047,1.449-0.094,1.996-0.141
					c0.643-0.057,1.209-0.123,1.699-0.199l-0.438,2.054c-0.651-0.085-1.317-0.165-1.997-0.241c-0.585-0.065-1.222-0.125-1.911-0.176
					c-0.689-0.053-1.35-0.078-1.982-0.078v8.878c1.114,0,2.138-0.048,3.073-0.142c0.934-0.094,1.751-0.203,2.449-0.326
					c0.812-0.132,1.553-0.287,2.223-0.467l-0.41,2.294c-0.113-0.009-0.283-0.019-0.51-0.028s-0.479-0.02-0.758-0.028
					s-0.571-0.017-0.878-0.021c-0.307-0.006-0.597-0.01-0.87-0.016c-0.274-0.004-0.518-0.009-0.729-0.014
					c-0.213-0.004-0.366-0.007-0.46-0.007h-6.117v-0.057c0.057-0.198,0.11-0.444,0.162-0.736s0.097-0.656,0.135-1.091
					c0.038-0.434,0.066-0.951,0.085-1.551c0.019-0.599,0.028-1.3,0.028-2.102V9.898c0-0.803-0.01-1.504-0.028-2.104
					c-0.019-0.599-0.047-1.117-0.085-1.557s-0.083-0.805-0.135-1.098s-0.105-0.538-0.162-0.736V4.348
					C166.075,4.348,167.248,4.343,168.414,4.334z"/>
				<path fill="#FFFFFF" d="M188.655,23.641c0.303-0.307,0.652-0.67,1.049-1.09s0.82-0.891,1.273-1.409s0.906-1.081,1.359-1.685
					c0.453-0.604,0.891-1.249,1.311-1.934c0.42-0.684,0.79-1.399,1.111-2.145c0.321-0.746,0.578-1.521,0.771-2.322
					c0.193-0.803,0.291-1.624,0.291-2.465c0-0.896-0.106-1.673-0.319-2.328c-0.212-0.656-0.503-1.199-0.87-1.629
					c-0.369-0.43-0.801-0.748-1.296-0.956c-0.496-0.208-1.031-0.312-1.607-0.312c-0.718,0-1.366,0.121-1.947,0.361
					c-0.58,0.24-1.085,0.521-1.515,0.842c-0.43,0.321-0.779,0.643-1.048,0.963c-0.27,0.321-0.451,0.566-0.546,0.736l-0.197-0.084
					l0.963-2.875c0.5-0.227,0.97-0.422,1.408-0.588c0.439-0.165,0.883-0.299,1.331-0.403s0.911-0.182,1.388-0.233
					c0.477-0.053,1.003-0.078,1.579-0.078c0.387,0,0.798,0.043,1.231,0.127c0.435,0.086,0.864,0.223,1.289,0.411
					s0.828,0.433,1.211,0.729c0.382,0.297,0.722,0.66,1.02,1.09c0.297,0.43,0.533,0.928,0.708,1.494s0.262,1.213,0.262,1.939
					c0,0.774-0.118,1.551-0.354,2.33c-0.235,0.779-0.547,1.543-0.934,2.293c-0.388,0.752-0.831,1.485-1.332,2.203
					c-0.5,0.717-1.015,1.401-1.543,2.053s-1.053,1.263-1.572,1.834c-0.519,0.57-0.986,1.092-1.401,1.564h5.452
					c0.349,0,0.691-0.008,1.026-0.021s0.644-0.037,0.927-0.07s0.531-0.078,0.744-0.135c0.212-0.057,0.375-0.127,0.488-0.213h0.057
					v3.017H187.99V24.37C188.132,24.191,188.354,23.947,188.655,23.641z"/>
			</g>
		</g>
		<g>
			<path fill="#FFFFFF" d="M232.697,11.18h5.533l-0.011,1.441h-3.784v1.893h3.476v1.451h-3.476v2.916h-1.738V11.18z"/>
			<path fill="#FFFFFF" d="M243.517,17.005c0.312,0.319,0.728,0.479,1.248,0.479c0.506,0,0.909-0.157,1.21-0.474
				c0.301-0.314,0.451-0.751,0.451-1.309V11.18h1.738v4.521c0,0.675-0.138,1.26-0.413,1.755c-0.274,0.495-0.669,0.876-1.183,1.144
				c-0.513,0.268-1.118,0.402-1.814,0.402c-0.697,0-1.306-0.135-1.826-0.402s-0.921-0.648-1.199-1.144s-0.418-1.08-0.418-1.755
				V11.18h1.738v4.521C243.049,16.252,243.204,16.686,243.517,17.005z M244.275,9.2c0.143,0.147,0.214,0.337,0.214,0.572
				c0,0.228-0.071,0.416-0.214,0.566c-0.144,0.15-0.328,0.226-0.556,0.226s-0.412-0.075-0.556-0.226
				c-0.143-0.15-0.215-0.339-0.215-0.566c0-0.235,0.072-0.425,0.215-0.572c0.144-0.146,0.328-0.22,0.556-0.22
				S244.132,9.054,244.275,9.2z M246.327,9.206c0.146,0.15,0.22,0.339,0.22,0.566s-0.073,0.416-0.22,0.566
				c-0.147,0.15-0.33,0.226-0.551,0.226c-0.228,0-0.414-0.075-0.561-0.226s-0.22-0.339-0.22-0.566s0.073-0.416,0.22-0.566
				s0.333-0.226,0.561-0.226C245.997,8.98,246.18,9.056,246.327,9.206z"/>
			<path fill="#FFFFFF" d="M256.656,18.881l-1.221-2.201h-0.165h-1.606v2.201h-1.738V11.18h3.345c1.004,0,1.781,0.233,2.332,0.699
				c0.55,0.466,0.824,1.124,0.824,1.975c0,0.594-0.122,1.102-0.368,1.523s-0.604,0.742-1.072,0.963l1.639,2.541H256.656z
				 M253.664,15.229h1.606c0.483,0,0.855-0.111,1.116-0.336c0.26-0.223,0.391-0.551,0.391-0.984c0-0.426-0.131-0.746-0.391-0.963
				c-0.261-0.216-0.633-0.324-1.116-0.324h-1.606V15.229z"/>
			<path fill="#FFFFFF" d="M261.33,11.18h6.436v1.475h-2.354v6.227h-1.738v-6.227h-2.343V11.18z"/>
			<path fill="#FFFFFF" d="M270.9,11.18h1.738v3.213h3.487V11.18h1.737v7.701h-1.737v-3.037h-3.487v3.037H270.9V11.18z"/>
		</g>
		
			<line fill="#FFFFFF" stroke="#FFFFFF" stroke-width="2" stroke-miterlimit="10" x1="222.977" y1="3.442" x2="222.977" y2="24.397"/>
	</g>
</g>
</svg>
