0000.000 (0) Opened log file at time: Thu, 06 Dec 2018 13:53:08 +0000 on http://stadelmann-hoefe.de
0000.002 (0) UpdraftPlus WordPress backup plugin (https://updraftplus.com): 1.14.3 WP: 4.9.3 PHP: 5.3.3-7+squeeze19 (apache2handler, Linux vm123 2.6.32-27-pve #1 SMP Tue Feb 11 16:18:29 CET 2014 x86_64) MySQL: 5.5.59 WPLANG: en_US Server: Apache safe_mode: 0 max_execution_time: 900 memory_limit: 128M (used: 76.9M | 85M) multisite: N openssl: OpenSSL 0.9.8o 01 Jun 2010 mcrypt: Y LANG: C ZipArchive::addFile: Y
0000.003 (0) Free space on disk containing Updraft's temporary directory: 135855.5 MB
0000.006 (0) Tasks: Backup files: 1 (schedule: daily) Backup DB:  (schedule: every8hours)
0000.007 (0) Processed schedules. Tasks now: Backup files: 1 Backup DB: 
0000.009 (0) Requesting semaphore lock (f) (apparently via scheduler: last_scheduled_action_called_at=1544057933, seconds_ago=46455)
0000.012 (0) Set semaphore last lock (f) time to 2018-12-06 13:53:08
0000.013 (0) Semaphore lock (f) complete
0000.018 (0) Backup run: resumption=0, nonce=72039ff2b8bf, begun at=1544104388 (0s ago), job type=backup
0000.020 (0) Scheduling a resumption (1) after 300 seconds (1544104688) in case this run gets aborted
0000.023 (0) Checking if we have a zip executable available
0000.034 (0) Creation of backups of directories: beginning
0000.039 (0) Beginning creation of dump of plugins (split every: 400 MB)
0002.986 (0) Total entities for the zip file: 472 directories, 3414 files (0 skipped as non-modified), 38.7 MB
0003.002 (0) Adding batch to zip file (UpdraftPlus_ZipArchive): over 2.0 seconds have passed since the last write (0 MB, 1 (1) files added so far); re-opening (prior size: 0 KB)
0003.091 (0) Zip: backup_2018-12-06-1353_STADELMANN_HFE_72039ff2b8bf-plugins.zip.tmp: 100 files added (on-disk size: 95.6 KB)
0003.124 (0) Zip: backup_2018-12-06-1353_STADELMANN_HFE_72039ff2b8bf-plugins.zip.tmp: 200 files added (on-disk size: 95.6 KB)
0003.173 (0) Zip: backup_2018-12-06-1353_STADELMANN_HFE_72039ff2b8bf-plugins.zip.tmp: 300 files added (on-disk size: 95.6 KB)
0003.223 (0) Zip: backup_2018-12-06-1353_STADELMANN_HFE_72039ff2b8bf-plugins.zip.tmp: 400 files added (on-disk size: 95.6 KB)
0003.272 (0) Zip: backup_2018-12-06-1353_STADELMANN_HFE_72039ff2b8bf-plugins.zip.tmp: 500 files added (on-disk size: 95.6 KB)
0003.275 (0) Adding batch to zip file (UpdraftPlus_ZipArchive): over 500 files added on this batch (14.3 MB, 3414 files batched, 501 (502) added so far); re-opening (prior size: 95.6 KB)
0004.980 (0) Zip: backup_2018-12-06-1353_STADELMANN_HFE_72039ff2b8bf-plugins.zip.tmp: 600 files added (on-disk size: 4429.4 KB)
0005.029 (0) Zip: backup_2018-12-06-1353_STADELMANN_HFE_72039ff2b8bf-plugins.zip.tmp: 700 files added (on-disk size: 4429.4 KB)
0005.079 (0) Zip: backup_2018-12-06-1353_STADELMANN_HFE_72039ff2b8bf-plugins.zip.tmp: 800 files added (on-disk size: 4429.4 KB)
0005.129 (0) Zip: backup_2018-12-06-1353_STADELMANN_HFE_72039ff2b8bf-plugins.zip.tmp: 900 files added (on-disk size: 4429.4 KB)
0005.175 (0) Zip: backup_2018-12-06-1353_STADELMANN_HFE_72039ff2b8bf-plugins.zip.tmp: 1000 files added (on-disk size: 4429.4 KB)
0005.179 (0) Adding batch to zip file (UpdraftPlus_ZipArchive): over 500 files added on this batch (1.6 MB, 3414 files batched, 501 (1003) added so far); re-opening (prior size: 4429.4 KB)
0005.816 (0) Zip: backup_2018-12-06-1353_STADELMANN_HFE_72039ff2b8bf-plugins.zip.tmp: 1100 files added (on-disk size: 5034.9 KB)
0005.859 (0) Zip: backup_2018-12-06-1353_STADELMANN_HFE_72039ff2b8bf-plugins.zip.tmp: 1200 files added (on-disk size: 5034.9 KB)
0005.898 (0) Zip: backup_2018-12-06-1353_STADELMANN_HFE_72039ff2b8bf-plugins.zip.tmp: 1300 files added (on-disk size: 5034.9 KB)
0005.935 (0) Zip: backup_2018-12-06-1353_STADELMANN_HFE_72039ff2b8bf-plugins.zip.tmp: 1400 files added (on-disk size: 5034.9 KB)
0005.974 (0) Zip: backup_2018-12-06-1353_STADELMANN_HFE_72039ff2b8bf-plugins.zip.tmp: 1500 files added (on-disk size: 5034.9 KB)
0005.977 (0) Adding batch to zip file (UpdraftPlus_ZipArchive): over 500 files added on this batch (11.2 MB, 3414 files batched, 501 (1504) added so far); re-opening (prior size: 5034.9 KB)
0008.977 (0) Zip: backup_2018-12-06-1353_STADELMANN_HFE_72039ff2b8bf-plugins.zip.tmp: 1600 files added (on-disk size: 8124.2 KB)
0009.030 (0) Zip: backup_2018-12-06-1353_STADELMANN_HFE_72039ff2b8bf-plugins.zip.tmp: 1700 files added (on-disk size: 8124.2 KB)
0009.068 (0) Zip: backup_2018-12-06-1353_STADELMANN_HFE_72039ff2b8bf-plugins.zip.tmp: 1800 files added (on-disk size: 8124.2 KB)
0009.110 (0) Zip: backup_2018-12-06-1353_STADELMANN_HFE_72039ff2b8bf-plugins.zip.tmp: 1900 files added (on-disk size: 8124.2 KB)
0009.150 (0) Zip: backup_2018-12-06-1353_STADELMANN_HFE_72039ff2b8bf-plugins.zip.tmp: 2000 files added (on-disk size: 8124.2 KB)
0009.154 (0) Adding batch to zip file (UpdraftPlus_ZipArchive): over 500 files added on this batch (7.3 MB, 3414 files batched, 501 (2005) added so far); re-opening (prior size: 8124.2 KB)
0011.989 (0) Zip: backup_2018-12-06-1353_STADELMANN_HFE_72039ff2b8bf-plugins.zip.tmp: 2100 files added (on-disk size: 11328.3 KB)
0012.038 (0) Zip: backup_2018-12-06-1353_STADELMANN_HFE_72039ff2b8bf-plugins.zip.tmp: 2200 files added (on-disk size: 11328.3 KB)
0012.080 (0) Zip: backup_2018-12-06-1353_STADELMANN_HFE_72039ff2b8bf-plugins.zip.tmp: 2300 files added (on-disk size: 11328.3 KB)
0012.126 (0) Zip: backup_2018-12-06-1353_STADELMANN_HFE_72039ff2b8bf-plugins.zip.tmp: 2400 files added (on-disk size: 11328.3 KB)
0012.179 (0) Zip: backup_2018-12-06-1353_STADELMANN_HFE_72039ff2b8bf-plugins.zip.tmp: 2500 files added (on-disk size: 11328.3 KB)
0012.185 (0) Adding batch to zip file (UpdraftPlus_ZipArchive): over 500 files added on this batch (3 MB, 3414 files batched, 501 (2506) added so far); re-opening (prior size: 11328.3 KB)
0013.032 (0) Zip: backup_2018-12-06-1353_STADELMANN_HFE_72039ff2b8bf-plugins.zip.tmp: 2600 files added (on-disk size: 12509.8 KB)
0013.099 (0) Zip: backup_2018-12-06-1353_STADELMANN_HFE_72039ff2b8bf-plugins.zip.tmp: 2700 files added (on-disk size: 12509.8 KB)
0013.164 (0) Zip: backup_2018-12-06-1353_STADELMANN_HFE_72039ff2b8bf-plugins.zip.tmp: 2800 files added (on-disk size: 12509.8 KB)
0013.225 (0) Zip: backup_2018-12-06-1353_STADELMANN_HFE_72039ff2b8bf-plugins.zip.tmp: 2900 files added (on-disk size: 12509.8 KB)
0013.275 (0) Zip: backup_2018-12-06-1353_STADELMANN_HFE_72039ff2b8bf-plugins.zip.tmp: 3000 files added (on-disk size: 12509.8 KB)
0013.281 (0) Adding batch to zip file (UpdraftPlus_ZipArchive): over 500 files added on this batch (0.4 MB, 3414 files batched, 501 (3007) added so far); re-opening (prior size: 12509.8 KB)
0013.674 (0) Zip: backup_2018-12-06-1353_STADELMANN_HFE_72039ff2b8bf-plugins.zip.tmp: 3100 files added (on-disk size: 12765.2 KB)
0013.726 (0) Zip: backup_2018-12-06-1353_STADELMANN_HFE_72039ff2b8bf-plugins.zip.tmp: 3200 files added (on-disk size: 12765.2 KB)
0013.781 (0) Zip: backup_2018-12-06-1353_STADELMANN_HFE_72039ff2b8bf-plugins.zip.tmp: 3300 files added (on-disk size: 12765.2 KB)
0013.830 (0) Zip: backup_2018-12-06-1353_STADELMANN_HFE_72039ff2b8bf-plugins.zip.tmp: 3400 files added (on-disk size: 12765.2 KB)
0015.260 (0) Created plugins zip (0) - 13158.4 KB in 15.2 s (868.1 KB/s) (sha1: 3d47be996a5f733507d5e91b7225fb1bf48ba7c7, sha256: 5514f2ccd23388b338e247702d887f7207728dd552929abc97a6f862051ab92b)
0015.265 (0) Beginning creation of dump of themes (split every: 400 MB)
0015.641 (0) Total entities for the zip file: 38 directories, 530 files (0 skipped as non-modified), 32.8 MB
0015.675 (0) Zip: backup_2018-12-06-1353_STADELMANN_HFE_72039ff2b8bf-themes.zip.tmp: 100 files added (on-disk size: 0 KB)
0015.710 (0) Zip: backup_2018-12-06-1353_STADELMANN_HFE_72039ff2b8bf-themes.zip.tmp: 200 files added (on-disk size: 0 KB)
0015.744 (0) Zip: backup_2018-12-06-1353_STADELMANN_HFE_72039ff2b8bf-themes.zip.tmp: 300 files added (on-disk size: 0 KB)
0015.763 (0) Adding batch to zip file (UpdraftPlus_ZipArchive): over 25 MB added on this batch (25.6 MB, 530 files batched, 361 (361) added so far); re-opening (prior size: 0 KB)
0017.937 (0) A useful amount of data was added after this amount of zip processing: 2.7 s (normalised: 2.6 s, rate: 9846.3 KB/s)
0017.940 (0) Performance is good - will increase the amount of data we attempt to batch (time=2.6675400733948, normalised_time=2.5999667642212, max_time=-1, data points known=0, old_max_bytes=26214400, new_max_bytes=60495542)
0017.955 (0) Zip: backup_2018-12-06-1353_STADELMANN_HFE_72039ff2b8bf-themes.zip.tmp: 400 files added (on-disk size: 20031.6 KB)
0017.985 (0) Zip: backup_2018-12-06-1353_STADELMANN_HFE_72039ff2b8bf-themes.zip.tmp: 500 files added (on-disk size: 20031.6 KB)
0018.915 (0) Created themes zip (0) - 25646.5 KB in 3.6 s (7050.1 KB/s) (sha1: a846ab54505a5058bc53458dce23fdc8b032d4ae, sha256: 477c9bce404060d9f560215df67b6b5fb3902b775f6b1130aaa8019c313c827d)
0018.920 (0) Exclusion option setting (uploads): backup*,*backups,backwpup*,wp-clone,snapshots
0018.921 (0) Looking for candidates to back up in: /var/www/vhosts/stadelmann-hoefe.de/httpdocs/wp-content/uploads
0018.922 (0) finding files: 2017: adding to list (1)
0018.923 (0) finding files: 2018: adding to list (2)
0018.924 (0) Beginning creation of dump of uploads (split every: 400 MB)
0019.139 (0) Total entities for the zip file: 16 directories, 172 files (0 skipped as non-modified), 26.7 MB
0019.169 (0) Zip: backup_2018-12-06-1353_STADELMANN_HFE_72039ff2b8bf-uploads.zip.tmp: 100 files added (on-disk size: 0 KB)
0022.200 (0) Created uploads zip (0) - 25460.5 KB in 3.3 s (7800.4 KB/s) (sha1: 3640c2c87c212b5f46fd317058352dc2234b5bf5, sha256: ce738f6a3830d8175f3c7ee4233827a4bd8f3b0c7c802585e69d422e3aca6b25)
0022.207 (0) Beginning backup of other directories found in the content directory (index: 0)
0022.208 (0) Exclusion option setting (others): upgrade,cache,updraft,backup*,*backups,mysql.sql,debug.log
0022.209 (0) Looking for candidates to back up in: /var/www/vhosts/stadelmann-hoefe.de/httpdocs/wp-content
0022.211 (0) finding files: wflogs: adding to list (1)
0022.212 (0) finding files: index.php: adding to list (2)
0022.213 (0) finding files: themes: skipping: this is the themes directory
0022.214 (0) finding files: plugins: skipping: this is the plugins directory
0022.215 (0) finding files: languages: adding to list (3)
0022.216 (0) finding files: uploads: skipping: this is the uploads directory
0022.217 (0) finding files: updraft: skipping: this is the updraft directory
0022.218 (0) finding files: upgrade: skipping: excluded by options
0022.385 (0) Total entities for the zip file: 4 directories, 445 files (0 skipped as non-modified), 46.5 MB
0022.412 (0) Zip: backup_2018-12-06-1353_STADELMANN_HFE_72039ff2b8bf-others.zip.tmp: 100 files added (on-disk size: 0 KB)
0022.442 (0) Zip: backup_2018-12-06-1353_STADELMANN_HFE_72039ff2b8bf-others.zip.tmp: 200 files added (on-disk size: 0 KB)
0022.470 (0) Zip: backup_2018-12-06-1353_STADELMANN_HFE_72039ff2b8bf-others.zip.tmp: 300 files added (on-disk size: 0 KB)
0022.497 (0) Zip: backup_2018-12-06-1353_STADELMANN_HFE_72039ff2b8bf-others.zip.tmp: 400 files added (on-disk size: 0 KB)
0029.602 (0) Created others zip (0) - 13485.1 KB in 7.4 s (1829.3 KB/s) (sha1: b2c0618890529137ccb7f1e207ac8e848858f42b, sha256: b32b12fa209cf81e080e5224a55d8b3255d03029d7fcc52d324b9206d7c7b450)
0029.611 (0) Saving backup status to database (elements: 8)
0029.619 (0) No database backup (wp) - not part of this run
0029.626 (0) backup_2018-12-06-1353_STADELMANN_HFE_72039ff2b8bf-plugins.zip: plugins: This file has not yet been successfully uploaded: will queue
0029.627 (0) backup_2018-12-06-1353_STADELMANN_HFE_72039ff2b8bf-themes.zip: themes: This file has not yet been successfully uploaded: will queue
0029.628 (0) backup_2018-12-06-1353_STADELMANN_HFE_72039ff2b8bf-uploads.zip: uploads: This file has not yet been successfully uploaded: will queue
0029.629 (0) backup_2018-12-06-1353_STADELMANN_HFE_72039ff2b8bf-others.zip: others: This file has not yet been successfully uploaded: will queue
0029.631 (0) Saving backup history. Total backup size: 75.9 MB
0029.638 (0) Requesting upload of the files that have not yet been successfully uploaded (4)
0029.640 (0) Cloud backup selection (1/1):  with instance (1/1) (last)
0029.641 (0) No remote despatch: user chose no remote backup service
0029.644 (0) Recording as successfully uploaded: backup_2018-12-06-1353_STADELMANN_HFE_72039ff2b8bf-plugins.zip (6f6151525963d50a2962727d3ff543f3)
0029.650 (0) Recording as successfully uploaded: backup_2018-12-06-1353_STADELMANN_HFE_72039ff2b8bf-themes.zip (300762ab65c61f4af6362231d3bb75d5)
0029.654 (0) Recording as successfully uploaded: backup_2018-12-06-1353_STADELMANN_HFE_72039ff2b8bf-uploads.zip (62ab1e56390bf344a0e4065e5191776d)
0029.658 (0) Recording as successfully uploaded: backup_2018-12-06-1353_STADELMANN_HFE_72039ff2b8bf-others.zip (66785737178d7c05cd9988b12e639f5a)
0029.662 (0) Retain: beginning examination of existing backup sets; user setting: retain_files=10, retain_db=10
0029.665 (0) Number of backup sets in history: 21; groups (db): 1
0029.666 (0) Examining (for databases) backup set with group_id=0, nonce=72039ff2b8bf, datestamp=1544104388 (Dec 06 2018 13:53:08)
0029.667 (0) Examining (for databases) backup set with group_id=0, nonce=085d59329ebf, datestamp=1544104385 (Dec 06 2018 13:53:05)
0029.667 (0) This backup set remains non-empty (f=0/d=1); will retain in history
0029.668 (0) Examining (for databases) backup set with group_id=0, nonce=699ae666ecba, datestamp=1544057971 (Dec 06 2018 00:59:31)
0029.668 (0) This backup set remains non-empty (f=0/d=1); will retain in history
0029.669 (0) Examining (for databases) backup set with group_id=0, nonce=4d37188d5727, datestamp=1544057933 (Dec 06 2018 00:58:53)
0029.669 (0) Examining (for databases) backup set with group_id=0, nonce=12dd4b3925ff, datestamp=1544013121 (Dec 05 2018 12:32:01)
0029.669 (0) This backup set remains non-empty (f=0/d=1); will retain in history
0029.669 (0) Examining (for databases) backup set with group_id=0, nonce=1d022b5e27b0, datestamp=1544013092 (Dec 05 2018 12:31:32)
0029.669 (0) Examining (for databases) backup set with group_id=0, nonce=7ced9a7741f5, datestamp=1539155890 (Oct 10 2018 07:18:10)
0029.669 (0) This backup set remains non-empty (f=0/d=1); will retain in history
0029.670 (0) Examining (for databases) backup set with group_id=0, nonce=17733f80a56a, datestamp=1539130574 (Oct 10 2018 00:16:14)
0029.670 (0) This backup set remains non-empty (f=0/d=1); will retain in history
0029.670 (0) Examining (for databases) backup set with group_id=0, nonce=3425118827da, datestamp=1539130538 (Oct 10 2018 00:15:38)
0029.670 (0) Examining (for databases) backup set with group_id=0, nonce=7e328eaf3a20, datestamp=1539071892 (Oct 09 2018 07:58:12)
0029.670 (0) This backup set remains non-empty (f=0/d=1); will retain in history
0029.671 (0) Examining (for databases) backup set with group_id=0, nonce=7a7cfac0570b, datestamp=1539034032 (Oct 08 2018 21:27:12)
0029.671 (0) This backup set remains non-empty (f=0/d=1); will retain in history
0029.671 (0) Examining (for databases) backup set with group_id=0, nonce=20eea9f973de, datestamp=1539016947 (Oct 08 2018 16:42:27)
0029.671 (0) Examining (for databases) backup set with group_id=0, nonce=238ab16519d7, datestamp=1539008719 (Oct 08 2018 14:25:19)
0029.671 (0) This backup set remains non-empty (f=0/d=1); will retain in history
0029.672 (0) Examining (for databases) backup set with group_id=0, nonce=80e4f1130ced, datestamp=1538918848 (Oct 07 2018 13:27:28)
0029.672 (0) Examining (for databases) backup set with group_id=0, nonce=4c4488440092, datestamp=1538918844 (Oct 07 2018 13:27:24)
0029.672 (0) This backup set remains non-empty (f=0/d=1); will retain in history
0029.672 (0) Examining (for databases) backup set with group_id=0, nonce=fc8189994b20, datestamp=1538879604 (Oct 07 2018 02:33:24)
0029.672 (0) This backup set remains non-empty (f=0/d=1); will retain in history
0029.672 (0) Examining (for databases) backup set with group_id=0, nonce=338e4f4f4dc0, datestamp=1538842284 (Oct 06 2018 16:11:24)
0029.673 (0) Examining (for databases) backup set with group_id=0, nonce=cb7a902dbf70, datestamp=1538751927 (Oct 05 2018 15:05:27)
0029.673 (0) Examining (for databases) backup set with group_id=0, nonce=dc57205b1111, datestamp=1538666539 (Oct 04 2018 15:22:19)
0029.673 (0) Examining (for databases) backup set with group_id=0, nonce=f1bb0f777169, datestamp=1538575098 (Oct 03 2018 13:58:18)
0029.673 (0) Examining (for databases) backup set with group_id=0, nonce=e75305388782, datestamp=1538486397 (Oct 02 2018 13:19:57)
0029.673 (0) Number of backup sets in history: 21; groups (files): 1
0029.674 (0) Examining (for files) backup set with nonce=72039ff2b8bf, datestamp=1544104388 (Dec 06 2018 13:53:08)
0029.674 (0) This backup set is the backup set just made, so will not be deleted.
0029.675 (0) This backup set is the backup set just made, so will not be deleted.
0029.675 (0) This backup set is the backup set just made, so will not be deleted.
0029.676 (0) This backup set is the backup set just made, so will not be deleted.
0029.676 (0) This backup set remains non-empty (f=1/d=0); will retain in history
0029.677 (0) Examining (for files) backup set with nonce=085d59329ebf, datestamp=1544104385 (Dec 06 2018 13:53:05)
0029.677 (0) This backup set remains non-empty (f=0/d=1); will retain in history
0029.678 (0) Examining (for files) backup set with nonce=699ae666ecba, datestamp=1544057971 (Dec 06 2018 00:59:31)
0029.678 (0) This backup set remains non-empty (f=0/d=1); will retain in history
0029.679 (0) Examining (for files) backup set with nonce=4d37188d5727, datestamp=1544057933 (Dec 06 2018 00:58:53)
0029.679 (0) This backup set remains non-empty (f=1/d=0); will retain in history
0029.680 (0) Examining (for files) backup set with nonce=12dd4b3925ff, datestamp=1544013121 (Dec 05 2018 12:32:01)
0029.680 (0) This backup set remains non-empty (f=0/d=1); will retain in history
0029.681 (0) Examining (for files) backup set with nonce=1d022b5e27b0, datestamp=1544013092 (Dec 05 2018 12:31:32)
0029.681 (0) This backup set remains non-empty (f=1/d=0); will retain in history
0029.682 (0) Examining (for files) backup set with nonce=7ced9a7741f5, datestamp=1539155890 (Oct 10 2018 07:18:10)
0029.682 (0) This backup set remains non-empty (f=0/d=1); will retain in history
0029.684 (0) Examining (for files) backup set with nonce=17733f80a56a, datestamp=1539130574 (Oct 10 2018 00:16:14)
0029.684 (0) This backup set remains non-empty (f=0/d=1); will retain in history
0029.684 (0) Examining (for files) backup set with nonce=3425118827da, datestamp=1539130538 (Oct 10 2018 00:15:38)
0029.685 (0) This backup set remains non-empty (f=1/d=0); will retain in history
0029.686 (0) Examining (for files) backup set with nonce=7e328eaf3a20, datestamp=1539071892 (Oct 09 2018 07:58:12)
0029.686 (0) This backup set remains non-empty (f=0/d=1); will retain in history
0029.688 (0) Examining (for files) backup set with nonce=7a7cfac0570b, datestamp=1539034032 (Oct 08 2018 21:27:12)
0029.688 (0) This backup set remains non-empty (f=0/d=1); will retain in history
0029.688 (0) Examining (for files) backup set with nonce=20eea9f973de, datestamp=1539016947 (Oct 08 2018 16:42:27)
0029.688 (0) This backup set remains non-empty (f=1/d=0); will retain in history
0029.690 (0) Examining (for files) backup set with nonce=238ab16519d7, datestamp=1539008719 (Oct 08 2018 14:25:19)
0029.690 (0) This backup set remains non-empty (f=0/d=1); will retain in history
0029.691 (0) Examining (for files) backup set with nonce=80e4f1130ced, datestamp=1538918848 (Oct 07 2018 13:27:28)
0029.691 (0) This backup set remains non-empty (f=1/d=0); will retain in history
0029.693 (0) Examining (for files) backup set with nonce=4c4488440092, datestamp=1538918844 (Oct 07 2018 13:27:24)
0029.693 (0) This backup set remains non-empty (f=0/d=1); will retain in history
0029.695 (0) Examining (for files) backup set with nonce=fc8189994b20, datestamp=1538879604 (Oct 07 2018 02:33:24)
0029.695 (0) This backup set remains non-empty (f=0/d=1); will retain in history
0029.695 (0) Examining (for files) backup set with nonce=338e4f4f4dc0, datestamp=1538842284 (Oct 06 2018 16:11:24)
0029.695 (0) This backup set remains non-empty (f=1/d=0); will retain in history
0029.697 (0) Examining (for files) backup set with nonce=cb7a902dbf70, datestamp=1538751927 (Oct 05 2018 15:05:27)
0029.697 (0) This backup set remains non-empty (f=1/d=0); will retain in history
0029.697 (0) Examining (for files) backup set with nonce=dc57205b1111, datestamp=1538666539 (Oct 04 2018 15:22:19)
0029.697 (0) This backup set remains non-empty (f=1/d=0); will retain in history
0029.698 (0) Examining (for files) backup set with nonce=f1bb0f777169, datestamp=1538575098 (Oct 03 2018 13:58:18)
0029.698 (0) This backup set remains non-empty (f=1/d=0); will retain in history
0029.699 (0) Examining (for files) backup set with nonce=e75305388782, datestamp=1538486397 (Oct 02 2018 13:19:57)
0029.699 (0) plugins: over retain limit (10); will delete this file entity
0029.699 (0) themes: over retain limit (10); will delete this file entity
0029.699 (0) uploads: over retain limit (10); will delete this file entity
0029.699 (0) others: over retain limit (10); will delete this file entity
0029.699 (0) Delete file: backup_2018-10-02-1319_STADELMANN_HFE_e75305388782-plugins.zip, service=none
0029.700 (0) Deleting local copy (backup_2018-10-02-1319_STADELMANN_HFE_e75305388782-plugins.zip)
0029.735 (0) Delete file: backup_2018-10-02-1319_STADELMANN_HFE_e75305388782-themes.zip, service=none
0029.736 (0) Deleting local copy (backup_2018-10-02-1319_STADELMANN_HFE_e75305388782-themes.zip)
0029.778 (0) Delete file: backup_2018-10-02-1319_STADELMANN_HFE_e75305388782-uploads.zip, service=none
0029.781 (0) Deleting local copy (backup_2018-10-02-1319_STADELMANN_HFE_e75305388782-uploads.zip)
0029.845 (0) Delete file: backup_2018-10-02-1319_STADELMANN_HFE_e75305388782-others.zip, service=none
0029.847 (0) Deleting local copy (backup_2018-10-02-1319_STADELMANN_HFE_e75305388782-others.zip)
0029.920 (0) This backup set is now empty; will remove from history
0029.922 (0) Deleting log file (log.e75305388782.txt)
0029.924 (0) Retain: saving new backup history, because at least 10 seconds have passed since the last save (sets now: 20)
0029.945 (0) Retain: saving new backup history (sets now: 20) and finishing retain operation
0029.950 (0) Resume backup (72039ff2b8bf, 0): finish run
0029.953 (0) Decremented the semaphore (f) by 1
0029.955 (0) Semaphore (f) unlocked
0029.957 (0) There were no errors in the uploads, so the 'resume' event (1) is being unscheduled
0029.962 (0) No email will/can be sent - the user has not configured an email address.
0029.963 (0) The backup apparently succeeded and is now complete
