0000.001 (0) Opened log file at time: Tue, 13 Feb 2018 05:21:28 +0000 on http://stadelmann-hoefe.de
0000.003 (0) UpdraftPlus WordPress backup plugin (https://updraftplus.com): 1.14.3 WP: 4.9.3 PHP: 5.3.3-7+squeeze19 (apache2handler, Linux vm123 2.6.32-27-pve #1 SMP Tue Feb 11 16:18:29 CET 2014 x86_64) MySQL: 5.5.59 WPLANG: en_US Server: Apache safe_mode: 0 max_execution_time: 900 memory_limit: 128M (used: 73.9M | 74.5M) multisite: N openssl: OpenSSL 0.9.8o 01 Jun 2010 mcrypt: Y LANG: C ZipArchive::addFile: Y
0000.004 (0) Free space on disk containing Updraft's temporary directory: 73367.2 MB
0000.008 (0) Tasks: Backup files:  (schedule: daily) Backup DB: 1 (schedule: every8hours)
0000.009 (0) Processed schedules. Tasks now: Backup files:  Backup DB: 1
0000.012 (0) Requesting semaphore lock (d) (apparently via scheduler: last_scheduled_action_called_at=1518185090, seconds_ago=314198)
0000.015 (0) Set semaphore last lock (d) time to 2018-02-13 05:21:28
0000.016 (0) Semaphore lock (d) complete
0000.020 (0) Backup run: resumption=0, nonce=b4739ea600c3, begun at=1518499288 (0s ago), job type=backup
0000.022 (0) Scheduling a resumption (1) after 300 seconds (1518499588) in case this run gets aborted
0000.041 (0) This backup run is not intended for files - skipping
0000.043 (0) Beginning creation of database dump (WordPress DB)
0000.185 (0) Table wp_options: Total expected rows (approximate): 377
0000.195 (0) Table wp_options: Total rows added: 218 in 0.01 seconds
0000.197 (0) Table wp_options: finishing file (backup_2018-02-13-0521_STADELMANN_HFE_b4739ea600c3-db-table-wp_options.table.gz - 11.6 KB)
0000.219 (0) Table wp_users: Total expected rows (approximate): 3
0000.223 (0) Table wp_users: Total rows added: 3 in 0.00 seconds
0000.224 (0) Table wp_users: finishing file (backup_2018-02-13-0521_STADELMANN_HFE_b4739ea600c3-db-table-wp_users.table.gz - 0.7 KB)
0000.251 (0) Table wp_usermeta: Total expected rows (approximate): 81
0000.257 (0) Table wp_usermeta: Total rows added: 81 in 0.00 seconds
0000.258 (0) Table wp_usermeta: finishing file (backup_2018-02-13-0521_STADELMANN_HFE_b4739ea600c3-db-table-wp_usermeta.table.gz - 2.1 KB)
0000.289 (0) Table wp_commentmeta: Total expected rows (approximate): 0
0000.292 (0) Table wp_commentmeta: Total rows added: 0 in 0.00 seconds
0000.294 (0) Table wp_commentmeta: finishing file (backup_2018-02-13-0521_STADELMANN_HFE_b4739ea600c3-db-table-wp_commentmeta.table.gz - 0.3 KB)
0000.298 (0) Table wp_comments: Total expected rows (approximate): 0
0000.301 (0) Table wp_comments: Total rows added: 0 in 0.00 seconds
0000.302 (0) Table wp_comments: finishing file (backup_2018-02-13-0521_STADELMANN_HFE_b4739ea600c3-db-table-wp_comments.table.gz - 0.5 KB)
0000.307 (0) Table wp_links: Total expected rows (approximate): 0
0000.309 (0) Table wp_links: Total rows added: 0 in 0.00 seconds
0000.311 (0) Table wp_links: finishing file (backup_2018-02-13-0521_STADELMANN_HFE_b4739ea600c3-db-table-wp_links.table.gz - 0.4 KB)
0000.408 (0) Table wp_postmeta: Total expected rows (approximate): 3766
0000.614 (0) Table wp_postmeta: Total rows added: 3609 in 0.20 seconds
0000.619 (0) Table wp_postmeta: finishing file (backup_2018-02-13-0521_STADELMANN_HFE_b4739ea600c3-db-table-wp_postmeta.table.gz - 35.5 KB)
0000.685 (0) Table wp_posts: Total expected rows (approximate): 275
0000.869 (0) Table wp_posts: Total rows added: 250 in 0.18 seconds
0000.871 (0) Table wp_posts: finishing file (backup_2018-02-13-0521_STADELMANN_HFE_b4739ea600c3-db-table-wp_posts.table.gz - 28 KB)
0000.885 (0) Table wp_term_relationships: Total expected rows (approximate): 16
0000.889 (0) Table wp_term_relationships: Total rows added: 16 in 0.00 seconds
0000.890 (0) Table wp_term_relationships: finishing file (backup_2018-02-13-0521_STADELMANN_HFE_b4739ea600c3-db-table-wp_term_relationships.table.gz - 0.4 KB)
0000.896 (0) Table wp_term_taxonomy: Total expected rows (approximate): 2
0000.907 (0) Table wp_term_taxonomy: Total rows added: 2 in 0.00 seconds
0000.909 (0) Table wp_term_taxonomy: finishing file (backup_2018-02-13-0521_STADELMANN_HFE_b4739ea600c3-db-table-wp_term_taxonomy.table.gz - 0.4 KB)
0000.919 (0) Table wp_termmeta: Total expected rows (approximate): 0
0000.921 (0) Table wp_termmeta: Total rows added: 0 in 0.00 seconds
0000.923 (0) Table wp_termmeta: finishing file (backup_2018-02-13-0521_STADELMANN_HFE_b4739ea600c3-db-table-wp_termmeta.table.gz - 0.3 KB)
0000.942 (0) Table wp_terms: Total expected rows (approximate): 2
0000.945 (0) Table wp_terms: Total rows added: 2 in 0.00 seconds
0000.946 (0) Table wp_terms: finishing file (backup_2018-02-13-0521_STADELMANN_HFE_b4739ea600c3-db-table-wp_terms.table.gz - 0.4 KB)
0000.958 (0) Table wp_wfBadLeechers: Total expected rows (approximate): 0
0000.960 (0) Table wp_wfBadLeechers: Total rows added: 0 in 0.00 seconds
0000.962 (0) Table wp_wfBadLeechers: finishing file (backup_2018-02-13-0521_STADELMANN_HFE_b4739ea600c3-db-table-wp_wfBadLeechers.table.gz - 0.3 KB)
0000.974 (0) Table wp_wfBlockedCommentLog: Total expected rows (approximate): 0
0000.976 (0) Table wp_wfBlockedCommentLog: Total rows added: 0 in 0.00 seconds
0000.978 (0) Table wp_wfBlockedCommentLog: finishing file (backup_2018-02-13-0521_STADELMANN_HFE_b4739ea600c3-db-table-wp_wfBlockedCommentLog.table.gz - 0.3 KB)
0000.988 (0) Table wp_wfBlockedIPLog: Total expected rows (approximate): 4
0000.991 (0) Table wp_wfBlockedIPLog: Total rows added: 4 in 0.00 seconds
0000.993 (0) Table wp_wfBlockedIPLog: finishing file (backup_2018-02-13-0521_STADELMANN_HFE_b4739ea600c3-db-table-wp_wfBlockedIPLog.table.gz - 0.4 KB)
0001.013 (0) Table wp_wfBlocks: Total expected rows (approximate): 0
0001.016 (0) Table wp_wfBlocks: Total rows added: 0 in 0.00 seconds
0001.018 (0) Table wp_wfBlocks: finishing file (backup_2018-02-13-0521_STADELMANN_HFE_b4739ea600c3-db-table-wp_wfBlocks.table.gz - 0.4 KB)
0001.030 (0) Table wp_wfBlocks7: Total expected rows (approximate): 0
0001.033 (0) Table wp_wfBlocks7: Total rows added: 0 in 0.00 seconds
0001.035 (0) Table wp_wfBlocks7: finishing file (backup_2018-02-13-0521_STADELMANN_HFE_b4739ea600c3-db-table-wp_wfBlocks7.table.gz - 0.4 KB)
0001.046 (0) Table wp_wfBlocksAdv: Total expected rows (approximate): 0
0001.048 (0) Table wp_wfBlocksAdv: Total rows added: 0 in 0.00 seconds
0001.051 (0) Table wp_wfBlocksAdv: finishing file (backup_2018-02-13-0521_STADELMANN_HFE_b4739ea600c3-db-table-wp_wfBlocksAdv.table.gz - 0.3 KB)
0001.058 (0) Table wp_wfConfig: Total expected rows (approximate): 182
0001.088 (0) Table wp_wfConfig: Total rows added: 233 in 0.03 seconds
0001.090 (0) Table wp_wfConfig: finishing file (backup_2018-02-13-0521_STADELMANN_HFE_b4739ea600c3-db-table-wp_wfConfig.table.gz - 230.6 KB)
0001.114 (0) Table wp_wfCrawlers: Total expected rows (approximate): 4
0001.118 (0) Table wp_wfCrawlers: Total rows added: 4 in 0.00 seconds
0001.119 (0) Table wp_wfCrawlers: finishing file (backup_2018-02-13-0521_STADELMANN_HFE_b4739ea600c3-db-table-wp_wfCrawlers.table.gz - 0.5 KB)
0001.124 (0) Table wp_wfFileChanges: Total expected rows (approximate): 0
0001.127 (0) Table wp_wfFileChanges: Total rows added: 0 in 0.00 seconds
0001.128 (0) Table wp_wfFileChanges: finishing file (backup_2018-02-13-0521_STADELMANN_HFE_b4739ea600c3-db-table-wp_wfFileChanges.table.gz - 0.3 KB)
0001.174 (0) Table wp_wfFileMods: Total expected rows (approximate): 5165
0001.844 (0) Table wp_wfFileMods: Total rows added: 4924 in 0.67 seconds
0001.847 (0) Table wp_wfFileMods: finishing file (backup_2018-02-13-0521_STADELMANN_HFE_b4739ea600c3-db-table-wp_wfFileMods.table.gz - 417.3 KB)
0002.288 (0) Table wp_wfHits: Total expected rows (approximate): 1903
0002.489 (0) Table wp_wfHits: Total rows added: 1610 in 0.20 seconds
0002.491 (0) Table wp_wfHits: finishing file (backup_2018-02-13-0521_STADELMANN_HFE_b4739ea600c3-db-table-wp_wfHits.table.gz - 43 KB)
0002.520 (0) Table wp_wfHoover: Total expected rows (approximate): 0
0002.527 (0) Table wp_wfHoover: Total rows added: 0 in 0.00 seconds
0002.528 (0) Table wp_wfHoover: finishing file (backup_2018-02-13-0521_STADELMANN_HFE_b4739ea600c3-db-table-wp_wfHoover.table.gz - 0.3 KB)
0002.538 (0) Table wp_wfIssues: Total expected rows (approximate): 7
0002.543 (0) Table wp_wfIssues: Total rows added: 7 in 0.00 seconds
0002.545 (0) Table wp_wfIssues: finishing file (backup_2018-02-13-0521_STADELMANN_HFE_b4739ea600c3-db-table-wp_wfIssues.table.gz - 1.7 KB)
0002.581 (0) Table wp_wfKnownFileList: Total expected rows (approximate): 4681
0002.755 (0) Table wp_wfKnownFileList: Total rows added: 4924 in 0.17 seconds
0002.757 (0) Table wp_wfKnownFileList: finishing file (backup_2018-02-13-0521_STADELMANN_HFE_b4739ea600c3-db-table-wp_wfKnownFileList.table.gz - 47.6 KB)
0002.776 (0) Table wp_wfLeechers: Total expected rows (approximate): 2
0002.779 (0) Table wp_wfLeechers: Total rows added: 2 in 0.00 seconds
0002.780 (0) Table wp_wfLeechers: finishing file (backup_2018-02-13-0521_STADELMANN_HFE_b4739ea600c3-db-table-wp_wfLeechers.table.gz - 0.3 KB)
0002.787 (0) Table wp_wfLockedOut: Total expected rows (approximate): 0
0002.805 (0) Table wp_wfLockedOut: Total rows added: 0 in 0.00 seconds
0002.806 (0) Table wp_wfLockedOut: finishing file (backup_2018-02-13-0521_STADELMANN_HFE_b4739ea600c3-db-table-wp_wfLockedOut.table.gz - 0.3 KB)
0002.811 (0) Table wp_wfLocs: Total expected rows (approximate): 0
0002.814 (0) Table wp_wfLocs: Total rows added: 0 in 0.00 seconds
0002.815 (0) Table wp_wfLocs: finishing file (backup_2018-02-13-0521_STADELMANN_HFE_b4739ea600c3-db-table-wp_wfLocs.table.gz - 0.4 KB)
0002.830 (0) Table wp_wfLogins: Total expected rows (approximate): 26
0002.836 (0) Table wp_wfLogins: Total rows added: 26 in 0.00 seconds
0002.838 (0) Table wp_wfLogins: finishing file (backup_2018-02-13-0521_STADELMANN_HFE_b4739ea600c3-db-table-wp_wfLogins.table.gz - 1.3 KB)
0002.851 (0) Table wp_wfNet404s: Total expected rows (approximate): 0
0002.854 (0) Table wp_wfNet404s: Total rows added: 0 in 0.00 seconds
0002.855 (0) Table wp_wfNet404s: finishing file (backup_2018-02-13-0521_STADELMANN_HFE_b4739ea600c3-db-table-wp_wfNet404s.table.gz - 0.3 KB)
0002.865 (0) Table wp_wfNotifications: Total expected rows (approximate): 40
0002.870 (0) Table wp_wfNotifications: Total rows added: 40 in 0.00 seconds
0002.871 (0) Table wp_wfNotifications: finishing file (backup_2018-02-13-0521_STADELMANN_HFE_b4739ea600c3-db-table-wp_wfNotifications.table.gz - 1 KB)
0002.889 (0) Table wp_wfPendingIssues: Total expected rows (approximate): 0
0002.892 (0) Table wp_wfPendingIssues: Total rows added: 0 in 0.00 seconds
0002.894 (0) Table wp_wfPendingIssues: finishing file (backup_2018-02-13-0521_STADELMANN_HFE_b4739ea600c3-db-table-wp_wfPendingIssues.table.gz - 0.4 KB)
0002.900 (0) Table wp_wfReverseCache: Total expected rows (approximate): 2
0002.903 (0) Table wp_wfReverseCache: Total rows added: 2 in 0.00 seconds
0002.905 (0) Table wp_wfReverseCache: finishing file (backup_2018-02-13-0521_STADELMANN_HFE_b4739ea600c3-db-table-wp_wfReverseCache.table.gz - 0.4 KB)
0002.914 (0) Table wp_wfSNIPCache: Total expected rows (approximate): 3
0002.917 (0) Table wp_wfSNIPCache: Total rows added: 3 in 0.00 seconds
0002.919 (0) Table wp_wfSNIPCache: finishing file (backup_2018-02-13-0521_STADELMANN_HFE_b4739ea600c3-db-table-wp_wfSNIPCache.table.gz - 0.5 KB)
0002.929 (0) Table wp_wfScanners: Total expected rows (approximate): 0
0002.931 (0) Table wp_wfScanners: Total rows added: 0 in 0.00 seconds
0002.933 (0) Table wp_wfScanners: finishing file (backup_2018-02-13-0521_STADELMANN_HFE_b4739ea600c3-db-table-wp_wfScanners.table.gz - 0.3 KB)
0002.993 (0) Table wp_wfStatus: Total expected rows (approximate): 821
0003.041 (0) Table wp_wfStatus: Total rows added: 976 in 0.05 seconds
0003.044 (0) Table wp_wfStatus: finishing file (backup_2018-02-13-0521_STADELMANN_HFE_b4739ea600c3-db-table-wp_wfStatus.table.gz - 14.8 KB)
0003.053 (0) Table wp_wfThrottleLog: Total expected rows (approximate): 0
0003.056 (0) Table wp_wfThrottleLog: Total rows added: 0 in 0.00 seconds
0003.058 (0) Table wp_wfThrottleLog: finishing file (backup_2018-02-13-0521_STADELMANN_HFE_b4739ea600c3-db-table-wp_wfThrottleLog.table.gz - 0.3 KB)
0003.065 (0) Table wp_wfVulnScanners: Total expected rows (approximate): 0
0003.068 (0) Table wp_wfVulnScanners: Total rows added: 0 in 0.00 seconds
0003.069 (0) Table wp_wfVulnScanners: finishing file (backup_2018-02-13-0521_STADELMANN_HFE_b4739ea600c3-db-table-wp_wfVulnScanners.table.gz - 0.3 KB)
0003.074 (0) backup_2018-02-13-0521_STADELMANN_HFE_b4739ea600c3-db-table-wp_options.table.gz (1/39): adding to final database dump
0003.079 (0) backup_2018-02-13-0521_STADELMANN_HFE_b4739ea600c3-db-table-wp_users.table.gz (2/39): adding to final database dump
0003.081 (0) backup_2018-02-13-0521_STADELMANN_HFE_b4739ea600c3-db-table-wp_usermeta.table.gz (3/39): adding to final database dump
0003.084 (0) backup_2018-02-13-0521_STADELMANN_HFE_b4739ea600c3-db-table-wp_commentmeta.table.gz (4/39): adding to final database dump
0003.085 (0) backup_2018-02-13-0521_STADELMANN_HFE_b4739ea600c3-db-table-wp_comments.table.gz (5/39): adding to final database dump
0003.087 (0) backup_2018-02-13-0521_STADELMANN_HFE_b4739ea600c3-db-table-wp_links.table.gz (6/39): adding to final database dump
0003.088 (0) backup_2018-02-13-0521_STADELMANN_HFE_b4739ea600c3-db-table-wp_postmeta.table.gz (7/39): adding to final database dump
0003.129 (0) backup_2018-02-13-0521_STADELMANN_HFE_b4739ea600c3-db-table-wp_posts.table.gz (8/39): adding to final database dump
0003.141 (0) backup_2018-02-13-0521_STADELMANN_HFE_b4739ea600c3-db-table-wp_term_relationships.table.gz (9/39): adding to final database dump
0003.143 (0) backup_2018-02-13-0521_STADELMANN_HFE_b4739ea600c3-db-table-wp_term_taxonomy.table.gz (10/39): adding to final database dump
0003.144 (0) backup_2018-02-13-0521_STADELMANN_HFE_b4739ea600c3-db-table-wp_termmeta.table.gz (11/39): adding to final database dump
0003.146 (0) backup_2018-02-13-0521_STADELMANN_HFE_b4739ea600c3-db-table-wp_terms.table.gz (12/39): adding to final database dump
0003.147 (0) backup_2018-02-13-0521_STADELMANN_HFE_b4739ea600c3-db-table-wp_wfBadLeechers.table.gz (13/39): adding to final database dump
0003.149 (0) backup_2018-02-13-0521_STADELMANN_HFE_b4739ea600c3-db-table-wp_wfBlockedCommentLog.table.gz (14/39): adding to final database dump
0003.150 (0) backup_2018-02-13-0521_STADELMANN_HFE_b4739ea600c3-db-table-wp_wfBlockedIPLog.table.gz (15/39): adding to final database dump
0003.152 (0) backup_2018-02-13-0521_STADELMANN_HFE_b4739ea600c3-db-table-wp_wfBlocks.table.gz (16/39): adding to final database dump
0003.153 (0) backup_2018-02-13-0521_STADELMANN_HFE_b4739ea600c3-db-table-wp_wfBlocks7.table.gz (17/39): adding to final database dump
0003.155 (0) backup_2018-02-13-0521_STADELMANN_HFE_b4739ea600c3-db-table-wp_wfBlocksAdv.table.gz (18/39): adding to final database dump
0003.156 (0) backup_2018-02-13-0521_STADELMANN_HFE_b4739ea600c3-db-table-wp_wfConfig.table.gz (19/39): adding to final database dump
0003.174 (0) backup_2018-02-13-0521_STADELMANN_HFE_b4739ea600c3-db-table-wp_wfCrawlers.table.gz (20/39): adding to final database dump
0003.176 (0) backup_2018-02-13-0521_STADELMANN_HFE_b4739ea600c3-db-table-wp_wfFileChanges.table.gz (21/39): adding to final database dump
0003.177 (0) backup_2018-02-13-0521_STADELMANN_HFE_b4739ea600c3-db-table-wp_wfFileMods.table.gz (22/39): adding to final database dump
0003.276 (0) backup_2018-02-13-0521_STADELMANN_HFE_b4739ea600c3-db-table-wp_wfHits.table.gz (23/39): adding to final database dump
0003.304 (0) backup_2018-02-13-0521_STADELMANN_HFE_b4739ea600c3-db-table-wp_wfHoover.table.gz (24/39): adding to final database dump
0003.306 (0) backup_2018-02-13-0521_STADELMANN_HFE_b4739ea600c3-db-table-wp_wfIssues.table.gz (25/39): adding to final database dump
0003.307 (0) backup_2018-02-13-0521_STADELMANN_HFE_b4739ea600c3-db-table-wp_wfKnownFileList.table.gz (26/39): adding to final database dump
0003.359 (0) backup_2018-02-13-0521_STADELMANN_HFE_b4739ea600c3-db-table-wp_wfLeechers.table.gz (27/39): adding to final database dump
0003.361 (0) backup_2018-02-13-0521_STADELMANN_HFE_b4739ea600c3-db-table-wp_wfLockedOut.table.gz (28/39): adding to final database dump
0003.363 (0) backup_2018-02-13-0521_STADELMANN_HFE_b4739ea600c3-db-table-wp_wfLocs.table.gz (29/39): adding to final database dump
0003.364 (0) backup_2018-02-13-0521_STADELMANN_HFE_b4739ea600c3-db-table-wp_wfLogins.table.gz (30/39): adding to final database dump
0003.366 (0) backup_2018-02-13-0521_STADELMANN_HFE_b4739ea600c3-db-table-wp_wfNet404s.table.gz (31/39): adding to final database dump
0003.367 (0) backup_2018-02-13-0521_STADELMANN_HFE_b4739ea600c3-db-table-wp_wfNotifications.table.gz (32/39): adding to final database dump
0003.369 (0) backup_2018-02-13-0521_STADELMANN_HFE_b4739ea600c3-db-table-wp_wfPendingIssues.table.gz (33/39): adding to final database dump
0003.371 (0) backup_2018-02-13-0521_STADELMANN_HFE_b4739ea600c3-db-table-wp_wfReverseCache.table.gz (34/39): adding to final database dump
0003.372 (0) backup_2018-02-13-0521_STADELMANN_HFE_b4739ea600c3-db-table-wp_wfSNIPCache.table.gz (35/39): adding to final database dump
0003.374 (0) backup_2018-02-13-0521_STADELMANN_HFE_b4739ea600c3-db-table-wp_wfScanners.table.gz (36/39): adding to final database dump
0003.375 (0) backup_2018-02-13-0521_STADELMANN_HFE_b4739ea600c3-db-table-wp_wfStatus.table.gz (37/39): adding to final database dump
0003.387 (0) backup_2018-02-13-0521_STADELMANN_HFE_b4739ea600c3-db-table-wp_wfThrottleLog.table.gz (38/39): adding to final database dump
0003.389 (0) backup_2018-02-13-0521_STADELMANN_HFE_b4739ea600c3-db-table-wp_wfVulnScanners.table.gz (39/39): adding to final database dump
0003.391 (0) backup_2018-02-13-0521_STADELMANN_HFE_b4739ea600c3-db.gz: finished writing out complete database file (816 KB)
0003.412 (0) Total database tables backed up: 39 (backup_2018-02-13-0521_STADELMANN_HFE_b4739ea600c3-db.gz, size: 858151, sha256)
0003.433 (0) backup_2018-02-13-0521_STADELMANN_HFE_b4739ea600c3-db.gz: db: This file has not yet been successfully uploaded: will queue
0003.434 (0) Saving backup history. Total backup size: 838 KB
0003.441 (0) Requesting upload of the files that have not yet been successfully uploaded (1)
0003.444 (0) Cloud backup selection (1/1):  with instance (1/1) (last)
0003.445 (0) No remote despatch: user chose no remote backup service
0003.448 (0) Recording as successfully uploaded: backup_2018-02-13-0521_STADELMANN_HFE_b4739ea600c3-db.gz (8eadbaf934d8cdadd414b0a36774fa5b)
0003.453 (0) Retain: beginning examination of existing backup sets; user setting: retain_files=10, retain_db=10
0003.455 (0) Number of backup sets in history: 21; groups (db): 1
0003.456 (0) Examining (for databases) backup set with group_id=0, nonce=10c0beb92321, datestamp=1518499288 (Feb 13 2018 05:21:28)
0003.457 (0) This backup set remains non-empty (f=0/d=1); will retain in history
0003.458 (0) Examining (for databases) backup set with group_id=0, nonce=84ff7bf7c166, datestamp=1518185090 (Feb 09 2018 14:04:50)
0003.458 (0) This backup set remains non-empty (f=0/d=1); will retain in history
0003.459 (0) Examining (for databases) backup set with group_id=0, nonce=0bbf43d94dd7, datestamp=1518185056 (Feb 09 2018 14:04:16)
0003.459 (0) Examining (for databases) backup set with group_id=0, nonce=a70a435a0e5e, datestamp=1518168830 (Feb 09 2018 09:33:50)
0003.459 (0) This backup set remains non-empty (f=0/d=1); will retain in history
0003.459 (0) Examining (for databases) backup set with group_id=0, nonce=0b240c8c009d, datestamp=1518119434 (Feb 08 2018 19:50:34)
0003.459 (0) Examining (for databases) backup set with group_id=0, nonce=b53daad5036c, datestamp=1518119429 (Feb 08 2018 19:50:29)
0003.459 (0) This backup set remains non-empty (f=0/d=1); will retain in history
0003.459 (0) Examining (for databases) backup set with group_id=0, nonce=34d20a3a7c17, datestamp=1517969779 (Feb 07 2018 02:16:19)
0003.459 (0) This backup set remains non-empty (f=0/d=1); will retain in history
0003.460 (0) Examining (for databases) backup set with group_id=0, nonce=d01d0694fd72, datestamp=1517931781 (Feb 06 2018 15:43:01)
0003.460 (0) Examining (for databases) backup set with group_id=0, nonce=16b394de0607, datestamp=1517931778 (Feb 06 2018 15:42:58)
0003.460 (0) This backup set remains non-empty (f=0/d=1); will retain in history
0003.460 (0) Examining (for databases) backup set with group_id=0, nonce=71e058b1f04a, datestamp=1517909824 (Feb 06 2018 09:37:04)
0003.460 (0) Examining (for databases) backup set with group_id=0, nonce=1324faa8e9a3, datestamp=1517909817 (Feb 06 2018 09:36:57)
0003.460 (0) This backup set remains non-empty (f=0/d=1); will retain in history
0003.461 (0) Examining (for databases) backup set with group_id=0, nonce=86634ca08de5, datestamp=1517835019 (Feb 05 2018 12:50:19)
0003.461 (0) Examining (for databases) backup set with group_id=0, nonce=a0c393040a9e, datestamp=1517835014 (Feb 05 2018 12:50:14)
0003.461 (0) This backup set remains non-empty (f=0/d=1); will retain in history
0003.461 (0) Examining (for databases) backup set with group_id=0, nonce=70008a273074, datestamp=1517702220 (Feb 03 2018 23:57:00)
0003.461 (0) This backup set remains non-empty (f=0/d=1); will retain in history
0003.461 (0) Examining (for databases) backup set with group_id=0, nonce=53eca4b86293, datestamp=1517669642 (Feb 03 2018 14:54:02)
0003.461 (0) This backup set remains non-empty (f=0/d=1); will retain in history
0003.462 (0) Examining (for databases) backup set with group_id=0, nonce=7655aeeb2d3c, datestamp=1517669612 (Feb 03 2018 14:53:32)
0003.462 (0) Examining (for databases) backup set with group_id=0, nonce=29de5b587f88, datestamp=1517654734 (Feb 03 2018 10:45:34)
0003.462 (0) 1517654734: db: this set includes a database (backup_2018-02-03-1045_STADELMANN_HFE_29de5b587f88-db.gz); db count is now 10
0003.462 (0) 1517654734: db: over retain limit (10); will delete this database
0003.462 (0) Delete file: backup_2018-02-03-1045_STADELMANN_HFE_29de5b587f88-db.gz, service=none
0003.463 (0) Deleting local copy (backup_2018-02-03-1045_STADELMANN_HFE_29de5b587f88-db.gz)
0003.472 (0) This backup set is now empty; will remove from history
0003.473 (0) Deleting log file (log.29de5b587f88.txt)
0003.480 (0) Examining (for databases) backup set with group_id=0, nonce=97b6dd3618df, datestamp=1517609920 (Feb 02 2018 22:18:40)
0003.480 (0) Examining (for databases) backup set with group_id=0, nonce=4f6ca1161b55, datestamp=1517495421 (Feb 01 2018 14:30:21)
0003.480 (0) Examining (for databases) backup set with group_id=0, nonce=8e4bf128424e, datestamp=1517411479 (Jan 31 2018 15:11:19)
0003.480 (0) Examining (for databases) backup set with group_id=0, nonce=a4aff696b96b, datestamp=1517328071 (Jan 30 2018 16:01:11)
0003.480 (0) Number of backup sets in history: 20; groups (files): 1
0003.482 (0) Examining (for files) backup set with nonce=10c0beb92321, datestamp=1518499288 (Feb 13 2018 05:21:28)
0003.482 (0) This backup set remains non-empty (f=0/d=1); will retain in history
0003.483 (0) Examining (for files) backup set with nonce=84ff7bf7c166, datestamp=1518185090 (Feb 09 2018 14:04:50)
0003.483 (0) This backup set remains non-empty (f=0/d=1); will retain in history
0003.483 (0) Examining (for files) backup set with nonce=0bbf43d94dd7, datestamp=1518185056 (Feb 09 2018 14:04:16)
0003.483 (0) This backup set remains non-empty (f=1/d=0); will retain in history
0003.484 (0) Examining (for files) backup set with nonce=a70a435a0e5e, datestamp=1518168830 (Feb 09 2018 09:33:50)
0003.484 (0) This backup set remains non-empty (f=0/d=1); will retain in history
0003.485 (0) Examining (for files) backup set with nonce=0b240c8c009d, datestamp=1518119434 (Feb 08 2018 19:50:34)
0003.485 (0) This backup set remains non-empty (f=1/d=0); will retain in history
0003.486 (0) Examining (for files) backup set with nonce=b53daad5036c, datestamp=1518119429 (Feb 08 2018 19:50:29)
0003.486 (0) This backup set remains non-empty (f=0/d=1); will retain in history
0003.487 (0) Examining (for files) backup set with nonce=34d20a3a7c17, datestamp=1517969779 (Feb 07 2018 02:16:19)
0003.487 (0) This backup set remains non-empty (f=0/d=1); will retain in history
0003.487 (0) Examining (for files) backup set with nonce=d01d0694fd72, datestamp=1517931781 (Feb 06 2018 15:43:01)
0003.487 (0) This backup set remains non-empty (f=1/d=0); will retain in history
0003.488 (0) Examining (for files) backup set with nonce=16b394de0607, datestamp=1517931778 (Feb 06 2018 15:42:58)
0003.488 (0) This backup set remains non-empty (f=0/d=1); will retain in history
0003.489 (0) Examining (for files) backup set with nonce=71e058b1f04a, datestamp=1517909824 (Feb 06 2018 09:37:04)
0003.489 (0) This backup set remains non-empty (f=1/d=0); will retain in history
0003.489 (0) Examining (for files) backup set with nonce=1324faa8e9a3, datestamp=1517909817 (Feb 06 2018 09:36:57)
0003.489 (0) This backup set remains non-empty (f=0/d=1); will retain in history
0003.490 (0) Examining (for files) backup set with nonce=86634ca08de5, datestamp=1517835019 (Feb 05 2018 12:50:19)
0003.490 (0) This backup set remains non-empty (f=1/d=0); will retain in history
0003.491 (0) Examining (for files) backup set with nonce=a0c393040a9e, datestamp=1517835014 (Feb 05 2018 12:50:14)
0003.491 (0) This backup set remains non-empty (f=0/d=1); will retain in history
0003.493 (0) Examining (for files) backup set with nonce=70008a273074, datestamp=1517702220 (Feb 03 2018 23:57:00)
0003.493 (0) This backup set remains non-empty (f=0/d=1); will retain in history
0003.493 (0) Examining (for files) backup set with nonce=53eca4b86293, datestamp=1517669642 (Feb 03 2018 14:54:02)
0003.493 (0) This backup set remains non-empty (f=0/d=1); will retain in history
0003.493 (0) Examining (for files) backup set with nonce=7655aeeb2d3c, datestamp=1517669612 (Feb 03 2018 14:53:32)
0003.493 (0) This backup set remains non-empty (f=1/d=0); will retain in history
0003.494 (0) Examining (for files) backup set with nonce=97b6dd3618df, datestamp=1517609920 (Feb 02 2018 22:18:40)
0003.494 (0) This backup set remains non-empty (f=1/d=0); will retain in history
0003.495 (0) Examining (for files) backup set with nonce=4f6ca1161b55, datestamp=1517495421 (Feb 01 2018 14:30:21)
0003.495 (0) This backup set remains non-empty (f=1/d=0); will retain in history
0003.495 (0) Examining (for files) backup set with nonce=8e4bf128424e, datestamp=1517411479 (Jan 31 2018 15:11:19)
0003.495 (0) This backup set remains non-empty (f=1/d=0); will retain in history
0003.495 (0) Examining (for files) backup set with nonce=a4aff696b96b, datestamp=1517328071 (Jan 30 2018 16:01:11)
0003.496 (0) This backup set remains non-empty (f=1/d=0); will retain in history
0003.496 (0) Retain: saving new backup history (sets now: 20) and finishing retain operation
0003.506 (0) Resume backup (b4739ea600c3, 0): finish run
0003.509 (0) Decremented the semaphore (d) by 1
0003.510 (0) Semaphore (d) unlocked
0003.511 (0) There were no errors in the uploads, so the 'resume' event (1) is being unscheduled
0003.515 (0) No email will/can be sent - the user has not configured an email address.
0003.516 (0) The backup apparently succeeded and is now complete
