<?xml version="1.0" encoding="utf-8"?>
<!-- Generator: Adobe Illustrator 15.0.2, SVG Export Plug-In . SVG Version: 6.00 Build 0)  -->
<!DOCTYPE svg PUBLIC "-//W3C//DTD SVG 1.1//EN" "http://www.w3.org/Graphics/SVG/1.1/DTD/svg11.dtd">
<svg version="1.1" id="Layer_1" xmlns="http://www.w3.org/2000/svg" xmlns:xlink="http://www.w3.org/1999/xlink" x="0px" y="0px"
	 width="47.334px" height="52.997px" viewBox="0 0 47.334 52.997" enable-background="new 0 0 47.334 52.997" xml:space="preserve">
<g>
	<g>
		<circle fill="#ED7B37" cx="23.667" cy="23.667" r="23.667"/>
		<polygon fill="#ED7B37" points="19,44.997 24,52.997 28,44.997 		"/>
	</g>
	<path fill="#FFFFFF" d="M35.68,24.479c-1.232-0.469-8.274-3.054-10.802-3.981l0.002-1.114c0.049-0.055,0.15-0.144,0.229-0.209
		c0.211-0.186,0.476-0.411,0.72-0.737c0.495-0.662,0.842-1.857,0.497-3.032c-0.291-1.001-1.025-1.767-2.068-2.159
		c-1.033-0.387-2.098-0.305-2.997,0.23c-0.917,0.545-1.53,1.491-1.685,2.591c-0.105,0.754,0.42,1.45,1.174,1.556
		c0.755,0.105,1.449-0.419,1.555-1.174c0.038-0.264,0.173-0.491,0.364-0.604c0.171-0.103,0.381-0.107,0.621-0.017
		c0.315,0.116,0.373,0.291,0.395,0.353c0.084,0.25,0.02,0.505-0.059,0.603c-0.077,0.097-0.183,0.188-0.317,0.305
		c-0.442,0.384-1.186,1.023-1.186,2.297v1.113c-2.526,0.927-9.569,3.513-10.803,3.981c-1.813,0.692-2.551,1.737-2.319,3.292
		c0.106,0.713,0.635,2.376,3.234,2.376h22.53c2.601,0,3.129-1.663,3.234-2.376C38.232,26.216,37.494,25.171,35.68,24.479z
		 M34.766,27.392h-22.53c-0.281,0-0.438-0.035-0.515-0.059c0.089-0.059,0.261-0.156,0.58-0.279
		c1.276-0.486,9.171-3.384,11.199-4.128c2.03,0.744,9.924,3.642,11.199,4.128c0.32,0.121,0.492,0.221,0.58,0.279
		C35.203,27.358,35.047,27.392,34.766,27.392z"/>
</g>
</svg>
